Senior
Senior
Senior
Senior
Senior
Senior
Senior
Senior
Senior
Senior
Senior
Senior
Senior
Senior
Senior
Senior
Senior
Senior
Senior
Senior
Senior
Senior
Senior
Senior
Senior
Senior
Senior
Senior
Senior
Senior
Senior
Senior
Senior
Senior
Senior
Senior
Senior
Senior
Senior
Senior
40–44
40–44
40–44
40–44
40–44
45–49
45–49
45–49
45–49
45–49
50–54
50–54
50–54
50–54
50–54
55–59
55–59
55–59
55–59
55–59
60–64
60–64
60–64
60–64
60–64
65–69
65–69
65–69
65–69
65–69
70–74
70–74
70–74
70–74
70–74
75–79
75–79
75–79
75–79
75–79
