0,0
0,0
0,0
0.485600000000000,0.538658461538461
0.547600000000000,0.572954405594406
0.605600000000000,0.605482517482518
0.659600000000000,0.636242797202797
0.709600000000000,0.665235244755245
0.755600000000000,0.692548251748252
0.797600000000000,0.718093426573427
0.835600000000000,0.741870769230769
0.869600000000000,0.763880279720280
0.899600000000000,0.784121958041958
0.925600000000000,0.802595804195804
0.947600000000000,0.819390209790210
0.965600000000000,0.834416783216783
0.979600000000000,0.848559440559441
0.991600000000000,0.862702097902098
0.999314285714286,0.874458181818182
1.000000000000000,0.881529510489511
1.000000000000000,0.883916083916084
1.000000000000000,0.883916083916084
1.000000000000000,0.883916083916084
1.000000000000000,0.883916083916084
1.000000000000000,0.883916083916084
1.000000000000000,0.883916083916084
1.000000000000000,0.883916083916084
1.000000000000000,0.883916083916084
1.000000000000000,0.883916083916084
1.000000000000000,0.883739300699301
0.999993638286282,0.883032167832168
0.999487698348270,0.881971468531469
0.998172786366477,0.880557202797203
0.996048902340902,0.878612587412587
0.993116046271546,0.876314405594406
0.989374218158409,0.873662657342658
0.984823418001491,0.870480559440560
0.979463645800791,0.866944895104895
0.973294901556310,0.862967272727273
0.966318123708752,0.858547692307693
0.958974887339988,0.853774545454546
0.951631650971224,0.848559440559441
0.944288414602460,0.842902377622378
0.936945178233696,0.836803356643357
0.929601941864933,0.830350769230769
0.922258705496169,0.823456223776224
0.914915469127405,0.816119720279720
0.907572232758641,0.808429650349651
0.900228996389877,0.800297622377622
0.892885760021114,0.791723636363636
0.885542523652350,0.782972867132867
0.878199287283586,0.774310489510490
0.870856050914822,0.765559720279720
0.863512814546058,0.756808951048951
0.856169578177295,0.748146573426574
0.848826341808531,0.739395804195804
0.841483105439767,0.730645034965035
0.834139869071003,0.721982657342657
0.826796632702239,0.713231888111888
0.819453396333476,0.704481118881119
0.812110159964712,0.695818741258741
0.804766923595948,0.687067972027972
0.797423687227184,0.678317202797203
0.790080450858420,0.669654825174825
0.782737214489657,0.660904055944056
0.775393978120893,0.652153286713287
0.768050741752129,0.643490909090909
0.760707505383365,0.634740139860140
0.753364269014601,0.625989370629371
0.746021032645838,0.617326993006993
0.738391964031288,0.608576223776224
0.730117864151432,0.599825454545455
0.721197592343524,0.591163076923077
0.711631148607564,0.582412307692308
0.701418532943552,0.573661538461539
0.690559745351488,0.564999160839161
0.679054785831371,0.556248391608392
0.666903654383203,0.547232447552448
0.654106351006982,0.537509370629371
0.640662875702710,0.526990769230769
0.626573228470385,0.515853426573427
0.611837409310008,0.503920559440560
0.596455418221579,0.491368951048951
0.580427255205098,0.478021818181818
0.563752920260565,0.463879160839161
0.546432413387979,0.449117762237762
0.528465734587342,0.433649230769231
0.509852883858652,0.417385174825175
0.490593861201911,0.400413986013986
0.470688666617117,0.382735664335664
0.450137300104272,0.364350209790210
0.428939761663374,0.345257622377622
0.407096051294424,0.325457902097902
0.384606168997422,0.304862657342657
0.361470114772368,0.283560279720280
0.337687888619261,0.261550769230769
0.313259490538103,0.238834125874126
0.288184920528892,0.215410349650350
0.262464178591630,0.191279440559441
0.236097264726315,0.166353006993007
0.209084178932948,0.140719440559441
